{
	"info": {
		"_postman_id": "12649012-2cee-407c-9849-1ec14dd917fe",
		"name": "s36",
		"schema": "https://schema.getpostman.com/json/collection/v2.1.0/collection.json",
		"_exporter_id": "26186607"
	},
	"item": [
		{
			"name": "Get all tasks",
			"request": {
				"method": "GET",
				"header": []
			},
			"response": []
		},
		{
			"name": "Create a task",
			"request": {
				"method": "POST",
				"header": [],
				"body": {
					"mode": "raw",
					"raw": "{\r\n    \"name\":\"Swim\"\r\n}",
					"options": {
						"raw": {
							"language": "json"
						}
					}
				},
				"url": {
					"raw": "http://localhost:3001/tasks",
					"protocol": "http",
					"host": [
						"localhost"
					],
					"port": "3001",
					"path": [
						"tasks"
					]
				}
			},
			"response": []
		},
		{
			"name": "Delete a task",
			"request": {
				"method": "GET",
				"header": []
			},
			"response": []
		},
		{
			"name": "Update a Task",
			"request": {
				"method": "GET",
				"header": []
			},
			"response": []
		},
		{
			"name": "Getting a specific task",
			"request": {
				"method": "GET",
				"header": []
			},
			"response": []
		},
		{
			"name": "changing the status of a task",
			"request": {
				"method": "GET",
				"header": []
			},
			"response": []
		}
	]
}